20 Agricultural Mapping with Digital Earth Africa – UN Handbook on Remote Sensing for Agricultural Statistics
…
The data can then be inspected. It contains 1,143 observations and 31 variables which include the spatial location, crop type, irrigation status and type, and comments on crop condition.

rwa_2020 <- st_as_sf(
    read_parquet('data/ct_digital_earth_africa/2020_rwa.geoparquet'),
    coords = c("X (Longitu", "Y (Latitud"),
    crs = 4326
)
rwa_2020

Simple feature collection with 1143 features and 30 fields
Geometry type: POINT
Dimension:     XY
Bounding box:  xmin: 30.22792 ymin: -1.650888 xmax: 30.46668 ymax: -1.051955
Geodetic CRS:  WGS 84
# A tibble: 1,143 × 31
   Id    Date   `Z (Altitud` `Location A` `Pictures L` `Land cover` `Type of Cr`
 * <chr> <chr>         <dbl>        <dbl> <chr>        <chr>        <chr>       
 1 3022  2023-…        1367.          3.6 https://dri… cropland     maize       
 2 3106  2024-…        1296.          4.5 https://dri… cropland     vegetables  
 3 3106  2024-…        1293           4.7 https://dri… cropland     vegetables  
 4 3107  2024-…        1355.          2.9 https://dri… cropland     maize       
 5 3107  2024-…        1358.          2.1 https://dri… cropland     maize       
 6 3107  2024-…        1355.          2.9 https://dri… cropland     maize       
 7 3107  2024-…        1358.          2.1 https://dri… cropland     maize       
 8 3114  2025-…        1350           2.3 https://dri… cropland     rice        
 9 3114  2025-…        1350           2.3 https://dri… cropland     rice        
10 3115  2025-…        1326.          3   https://dri… cropland     rice        
# ℹ 1,133 more rows
# ℹ 24 more variables: `Water sour` <chr>, Irrigation <chr>,
#   `Field size` <chr>, `Canopy cov` <chr>, Note <chr>, PARENT_KEY <chr>,
#   KEY <chr>, ValidityTi <chr>, layer <chr>, sampleID <chr>,
#   ewoc_code <int64>, valid_time <dttm>, sample_id <chr>,
#   irrigation_status <int>, extract <int>, quality_score_lc <int>,
#   quality_score_ct <int>, ` h3_l3_cell` <chr>, …
…
